[
    {
        "habitat": "Marine Neritic - Subtidal Rock and Rocky Reefs",
        "image_urls": [
            "https://www.oregonconservationstrategy.org/media/pinnaclecanyon3IC-e1447359121244-750x500.jpg",
            "https://faunafocus.files.wordpress.com/2019/03/marine-neritic-1.jpg?w=2560&h=1200&crop=1",
            "https://upload.wikimedia.org/wikipedia/commons/4/40/Nusa_Lembongan_Reef.jpg",
            "https://faunafocus.files.wordpress.com/2019/03/marine-neritic-1.jpg",
            "https://s3-us-west-2.amazonaws.com/courses-images/wp-content/uploads/sites/1223/2017/02/09235555/Figure_44_04_02.jpg",
            "https://www.wildlifetrusts.org/sites/default/files/styles/large/public/2018-05/wildlifetrusts_40332046749_0.jpg?itok=FGfVvm2I",
            "https://static.cambridge.org/binary/version/id/urn:cambridge.org:id:binary-alt:20190905101155-29403-mediumThumb-41608fig5_2.jpg?pub-status=live",
            "https://ocs.ecotrust.org/media/Yaquina-Head-tide-pool_credit-Gregory_Krutzikowsky-750x500.jpg",
            "https://ars.els-cdn.com/content/image/3-s2.0-B9780128130643000077-f07-01-9780128130643.jpg",
            "https://www.thoughtco.com/thmb/oEcGKOfLkueCwfDXPcBOYSyUMVU=/1333x1000/smart/filters:no_upscale()/turtle_coral_reef-4428c73f798c432ab67fe34c573ebf87.jpg"
        ]
    },
    {
        "habitat": "Wetlands (inland) - Permanent Rivers/Streams/Creeks (includes waterfalls)",
        "image_urls": [
            "http://www.personal.ceu.hu/students/03/nature_conservation/wwddetail/Image3.jpg",
            "http://www.personal.ceu.hu/students/03/nature_conservation/wwddetail/Image2.gif",
            "http://www.personal.ceu.hu/students/03/nature_conservation/wwddetail/Image5.jpg",
            "https://cdn.slidesharecdn.com/ss_thumbnails/typeswetlandformation-160415130530-thumbnail-4.jpg?cb=1460729001",
            "http://www.personal.ceu.hu/students/03/nature_conservation/wwddetail/Image6.jpg",
            "https://www.basu.org.in/wp-content/uploads/2020/10/wetlands.pdf",
            "https://www.basu.org.in/wp-content/uploads/2020/10/wetlands.pdf",
            "https://www.mdpi.com/water/water-12-00260/article_deploy/html/images/water-12-00260-g001b.png",
            "https://wwfeu.awsassets.panda.org/downloads/wwf_ramsar_report.pdf",
            "https://upload.wikimedia.org/wikipedia/commons/1/12/Aubach_%28Wiehl%29_nahe_dem_Weiherdamm_in_Wildbergerh%C3%BCtte.jpg"
        ]
    },
    {
        "habitat": "Wetlands (inland) - Permanent Freshwater Lakes (over 8ha)",
        "image_urls": [
            "http://www.personal.ceu.hu/students/03/nature_conservation/wwddetail/Image3.jpg",
            "http://www.personal.ceu.hu/students/03/nature_conservation/wwddetail/Image2.gif",
            "https://images.squarespace-cdn.com/content/v1/567070822399a343227dd9c4/1452204717282-PB65R92R4Y4M8HW0JIST/image-asset.jpeg?format=1000w",
            "https://environment-review.yale.edu/sites/default/files/styles/flexslider_full/public/8070749192_72b1af084c_o.jpg?itok=qyqFEbdT",
            "https://slideplayer.com/slide/1630550/6/images/12/Inland+Wetlands+2%2F2+U+--+Non-forested+peatlands%3B+includes+shrub+or+open+bogs%2C+swamps%2C+fens..jpg",
            "http://www.personal.ceu.hu/students/03/nature_conservation/wwddetail/Image5.jpg",
            "https://s3.studylib.net/store/data/007736007_2-cedcd9ef18d8497f3166094996ebc3f0.png",
            "https://geochange.er.usgs.gov/sw/impacts/hydrology/wetlands/inland.jpg",
            "https://enacademic.com/pictures/enwiki/77/Mangrove_trees_in_Everglades.JPG",
            "https://images.squarespace-cdn.com/content/v1/567070822399a343227dd9c4/1451429123127-TIFUEKY9CM0XX5E6Q3IQ/wetland-photo-header.jpg"
        ]
    },
    {
        "habitat": "Rocky areas (eg. inland cliffs, mountain peaks)",
        "image_urls": [
            "https://forum.wordreference.com/proxy.php?image=https%3A%2F%2Fpreviews.123rf.com%2Fimages%2Fianwool%2Fianwool1204%2Fianwool120400371%2F13212367-inland-cliff-blue-mountains-national-park-new-south-wales-australia.jpg&hash=f8a185c07354e19b8b3c68d8bd238cd4",
            "https://media.nationalgeographic.org/assets/photos/000/192/19258.jpg",
            "https://www.dcr.virginia.gov/natural-heritage/natural-communities/image/nctd12-photo2.jpg",
            "https://media.nationalgeographic.org/assets/photos/183/060/0dc59fd8-4167-4b4c-a151-c5001d8c9cd8_c15-0-1185-801_r380x260.jpg?bd5a5ee338a55d3dbf484bee14fca75671a614d8",
            "https://www.wildlifehc.org/wp-content/uploads/2015/12/WHC-Rocky-Areas-Project-Guidance.pdf",
            "https://i.pinimg.com/originals/78/e2/b4/78e2b4b0ee18c23c87837954b3869f9b.jpg",
            "https://i.pinimg.com/originals/95/5f/45/955f452a1da50d253e36efce34105744.jpg",
            "https://theculturetrip.com/wp-content/uploads/2016/04/trango-towers-1024x686.jpg",
            "https://www.nps.gov/im/chdn/images/El-Capitan_GUMO_NPGallery_Public-domain_D-Buehler_cropped.jpg?maxwidth=650&autorotate=false",
            "http://theculturetrip.com/wp-content/uploads/2016/04/vermilion-cliffs.jpg"
        ]
    },
    {
        "habitat": "Artificial/Terrestrial - Plantations",
        "image_urls": [
            "https://4.bp.blogspot.com/-yaJqZALXe7k/W5Ail7GUzjI/AAAAAAAAEHI/NfuRl8noKrcuSzDJfRIVbD-lx0hM9zEgwCLcBGAs/s1600/10%2Bexamples%2Bof%2Bartificial%2Bmanmade%2Becosystems.png",
            "https://faunafocus.files.wordpress.com/2019/03/artificial-terrestrial.jpg",
            "https://faunafocus.files.wordpress.com/2019/03/artificial-terrestrial.jpg?w=2560&h=1200&crop=1",
            "https://c8.alamy.com/comp/2B7YJMM/tegallalang-rice-terrace-on-bali-island-2B7YJMM.jpg",
            "https://images.saymedia-content.com/.image/t_share/MTc0NjQxMDk5MDQ5MDg0OTE4/different-types-of-ecosystems-natural-and-artificial-ecosystem.jpg",
            "https://img.brainkart.com/extra4/ZYDhFbb.jpg",
            "https://images.saymedia-content.com/.image/ar_4:3%2Cc_fill%2Ccs_srgb%2Cfl_progressive%2Cq_auto:eco%2Cw_1200/MTc0MDE1MTQ0ODc4Mjg2MTMx/different-types-of-ecosystems-natural-and-artificial-ecosystem.jpg",
            "https://www.thedailystar.net/sites/default/files/customphp/photo/2008/11/29/2008-11-29__env02.jpg",
            "https://i1.rgstatic.net/publication/235227403_Ecosystem_Goods_and_Services_from_Plantation_Forests/links/02e7e53074f8ae4b1e000000/largepreview.png",
            "https://ars.els-cdn.com/content/image/1-s2.0-S0048969720306525-ga1.jpg"
        ]
    },
    {
        "habitat": "Forest - Subtropical/Tropical Moist Lowland",
        "image_urls": [
            "https://upload.wikimedia.org/wikipedia/commons/thumb/e/e2/Fluss_Dja_Somalomo.JPG/500px-Fluss_Dja_Somalomo.JPG",
            "https://1.bp.blogspot.com/-tPf2yoTdEyk/Wag0AzEbA0I/AAAAAAAAytU/nN-Qlx2bxbUcvrAMs24lhtBtCI4oB0dwQCK4BGAYYCw/s1600/Tropical%2BAnd%2BSubtropical%2BMoist%2BBroadleaf%2BForests%2B-%2BSubtropical%2BForest-786716.png",
            "https://www.ecosystem-guides.com/images/rainforest-lowland-cape-trib.jpg",
            "https://upload.wikimedia.org/wikipedia/commons/thumb/f/fb/Biome_map_01.svg/1200px-Biome_map_01.svg.png",
            "https://images.squarespace-cdn.com/content/v1/54a5efeae4b034981b4ad42d/1427809384765-UACK5UPTWCLK0N1C67M7/IMG_4169.JPG?format=1000w",
            "https://upload.wikimedia.org/wikipedia/commons/thumb/8/8c/Lowland_rainforest%2C_Masoala_National_Park%2C_Madagascar_%284026784053%29.jpg/1200px-Lowland_rainforest%2C_Masoala_National_Park%2C_Madagascar_%284026784053%29.jpg",
            "https://www.ecosystem-guides.com/images/tanjung-puting-blackwter-meeting.jpg",
            "https://ak.picdn.net/shutterstock/videos/31377967/thumb/1.jpg",
            "https://upload.wikimedia.org/wikipedia/commons/e/ed/Subtropical_semi-evergreen_seasonal_forest_in_Northern_Thailand.JPG",
            "https://upload.wikimedia.org/wikipedia/commons/thumb/f/fb/Biome_map_01.svg/700px-Biome_map_01.svg.png"
        ]
    },
    {
        "habitat": "Forest - Temperate",
        "image_urls": [
            "https://www.treehugger.com/thmb/eb5HTCICjYsoag8EKxNUYAscSjg=/5571x3714/filters:fill(auto,1)/GettyImages-170074807-fc568317496947adb9a5dec71be44380.jpg",
            "https://www.thoughtco.com/thmb/Q6_8BZ4wZm74oWkye7xDKtXzw9Y=/2000x1500/smart/filters:no_upscale()/171748805-56a0067a5f9b58eba4ae8baa.jpg",
            "https://www.worldatlas.com/r/w1200/upload/04/32/dc/shutterstock-1213026247.jpg",
            "https://earthobservatory.nasa.gov/img/biome/tempDecidForest.jpg",
            "https://www.oddizzi.com/wp-content/uploads/2012/08/img-eco-fallleaves_big.jpg",
            "https://science.sciencemag.org/content/sci/358/6362/494.1/F1.large.jpg?width=800&height=600&carousel=1",
            "https://cdn.britannica.com/20/60420-050-AC7D3A4E/forest-fall-coloration-Utah-Wasatch-Mountains.jpg",
            "https://www.stateofthebirds.org/2016/wp-content/uploads/2016/04/EastTemperate-Forest_new.jpg",
            "https://askabiologist.asu.edu/sites/default/files/styles/panopoly_image_full/public/side-content/fall-foliage.jpg?itok=m_HpaUh1",
            "https://animals.sandiegozoo.org/sites/default/files/2016-08/habitats_hero_temperate%20forest.jpg"
        ]
    },
    {
        "habitat": "Artificial/Terrestrial - Arable Land",
        "image_urls": [
            "https://faunafocus.files.wordpress.com/2019/03/artificial-terrestrial.jpg",
            "https://www.researchgate.net/publication/342735137/figure/fig12/AS:910891868512266@1594184953519/CORINE-land-cover-map-of-Turkey-100-artificial-land-210-arable-land-221-vineyards_Q640.jpg",
            "https://www.mdpi.com/ijerph/ijerph-16-02693/article_deploy/html/images/ijerph-16-02693-g001.png",
            "https://assetsds.cdnedge.bluemix.net/sites/default/files/customphp/photo/2008/11/29/2008-11-29__env02.jpg",
            "https://www.eea.europa.eu/data-and-maps/figures/land-take-by-artificial-development-eea-core-indicators-csi014-1/image_original",
            "https://ars.els-cdn.com/content/image/1-s2.0-S0143622818312062-gr5.jpg",
            "https://www.mdpi.com/land/land-10-00589/article_deploy/html/images/land-10-00589-g002.png",
            "https://media.nationalgeographic.org/assets/photos/193/126/914ae1a1-1713-4627-839e-4c458e91799c.jpg",
            "https://img.beritasatu.com/cache/jakartaglobe/960x620-4/2020/06/1591066867.jpg",
            "https://www.mdpi.com/sustainability/sustainability-11-01354/article_deploy/html/images/sustainability-11-01354-g003.png"
        ]
    },
    {
        "habitat": "Artificial/Terrestrial - Pastureland",
        "image_urls": [
            "https://faunafocus.files.wordpress.com/2019/03/artificial-terrestrial.jpg",
            "https://faunafocus.files.wordpress.com/2020/12/cropped-kea-4155893-1.jpg?w=350&h=200&crop=1",
            "https://faunafocus.files.wordpress.com/2020/02/cropped-janetandphil-1-e1582679502145-1.jpg?w=350&h=200&crop=1",
            "https://faunafocus.files.wordpress.com/2018/08/cropped-andy-reago-chrissy-mclarren-41.jpg?w=350&h=200&crop=1",
            "http://www.fao.org/3/x0596e/X0596e09.gif",
            "https://www.mdpi.com/remotesensing/remotesensing-12-01949/article_deploy/html/images/remotesensing-12-01949-ag-550.jpg",
            "https://media.springernature.com/lw685/springer-static/image/art%3A10.1038%2Fs41597-020-00599-8/MediaObjects/41597_2020_599_Fig2_HTML.png",
            "https://academic.oup.com/icb/article-pdf/58/5/929/26187666/icy101.pdf",
            "https://media.springernature.com/lw685/springer-static/image/art%3A10.1038%2Fs41597-020-00599-8/MediaObjects/41597_2020_599_Fig3_HTML.png",
            "https://ars.els-cdn.com/content/image/1-s2.0-S0006320721001816-gr2.jpg"
        ]
    },
    {
        "habitat": "Forest - Subtropical/Tropical Dry",
        "image_urls": [
            "https://images.squarespace-cdn.com/content/v1/54a5efeae4b034981b4ad42d/1427665386270-MKSSLUGYJX9R7XKFF525/taiga.jpg",
            "https://upload.wikimedia.org/wikipedia/commons/thumb/7/78/Chacachacare_dry_forest_3.JPG/200px-Chacachacare_dry_forest_3.JPG",
            "https://upload.wikimedia.org/wikipedia/commons/thumb/1/12/Biome_map_02.svg/1200px-Biome_map_02.svg.png",
            "https://upload.wikimedia.org/wikipedia/commons/thumb/e/ed/Subtropical_semi-evergreen_seasonal_forest_in_Northern_Thailand.JPG/200px-Subtropical_semi-evergreen_seasonal_forest_in_Northern_Thailand.JPG",
            "http://2.bp.blogspot.com/-yhC82Z_kcdM/TgoOgWPU7qI/AAAAAAAAA-0/M5VZDdyU-g4/s1600/zzzzzzzzzzz1.jpg",
            "https://upload.wikimedia.org/wikipedia/commons/thumb/1/16/Starr_040220-0314_Santalum_paniculatum.jpg/300px-Starr_040220-0314_Santalum_paniculatum.jpg",
            "https://images.squarespace-cdn.com/content/v1/54a5efeae4b034981b4ad42d/1427667713698-3ERPKJOQM17P9DMXATA1/Jaguarundi.JPG",
            "https://i.ytimg.com/vi/BOmXYzpvRIs/sddefault.jpg",
            "https://www.ecosystem-guides.com/images/dry-woodland.jpg",
            "https://c8.alamy.com/comp/WX0MTF/tropical-and-subtropical-habitats-on-the-way-to-the-horton-plains-in-sri-lanka-WX0MTF.jpg"
        ]
    },
    {
        "habitat": "Forest - Subtropical/Tropical Moist Montane",
        "image_urls": [
            "https://upload.wikimedia.org/wikipedia/commons/thumb/e/e2/Fluss_Dja_Somalomo.JPG/250px-Fluss_Dja_Somalomo.JPG",
            "https://1.bp.blogspot.com/-tPf2yoTdEyk/Wag0AzEbA0I/AAAAAAAAytU/nN-Qlx2bxbUcvrAMs24lhtBtCI4oB0dwQCK4BGAYYCw/s1600/Tropical%2BAnd%2BSubtropical%2BMoist%2BBroadleaf%2BForests%2B-%2BSubtropical%2BForest-786716.png",
            "https://image.shutterstock.com/image-photo/morning-cloud-forest-called-fog-260nw-618769145.jpg",
            "https://upload.wikimedia.org/wikipedia/commons/thumb/6/63/Forest_on_Gunung_Batu_Brinchang%2C_Malaysia.jpg/220px-Forest_on_Gunung_Batu_Brinchang%2C_Malaysia.jpg",
            "https://ak.picdn.net/shutterstock/videos/31377976/thumb/1.jpg",
            "https://wwfint.awsassets.panda.org/img/scr_113456_426213.jpg",
            "http://frienvis.nic.in/WriteReadData/UserFiles/image/kids/forest/1.jpg",
            "https://www.ecosystem-guides.com/images/rainforest-lowland-cape-trib.jpg",
            "https://ak.picdn.net/shutterstock/videos/31377967/thumb/1.jpg",
            "https://upload.wikimedia.org/wikipedia/commons/thumb/f/fb/Biome_map_01.svg/1200px-Biome_map_01.svg.png"
        ]
    },
    {
        "habitat": "Shrubland - Subtropical/Tropical Dry",
        "image_urls": [
            "https://media.springernature.com/original/springer-static/image/chp%3A10.1007%2F978-3-030-49860-3_6/MediaObjects/212114_1_En_6_Fig20_HTML.jpg",
            "https://c8.alamy.com/comp/FJ55AR/sunbeams-breaking-through-the-clouds-above-dry-shrubland-namibia-etosha-FJ55AR.jpg",
            "https://farm1.staticflickr.com/301/31545899403_b647fd4cbe_o.jpg",
            "https://upload.wikimedia.org/wikipedia/commons/thumb/3/3b/Biome_map_07.svg/800px-Biome_map_07.svg.png",
            "https://upload.wikimedia.org/wikipedia/commons/thumb/7/78/Chacachacare_dry_forest_3.JPG/400px-Chacachacare_dry_forest_3.JPG",
            "https://journals.plos.org/plosone/article/figure/image?size=medium&id=10.1371/journal.pone.0043714.g001",
            "https://upload.wikimedia.org/wikipedia/commons/thumb/e/e4/Vegetation.png/1200px-Vegetation.png",
            "https://c8.alamy.com/comp/2CBW9HB/shrubland-dry-wild-nature-at-countryside-of-tzia-kea-island-hiking-between-stones-and-bushes-adventure-in-greece-summer-holidays-destination-cl-2CBW9HB.jpg",
            "https://w7.pngwing.com/pngs/226/57/png-transparent-tropical-and-subtropical-dry-broadleaf-forests-temperate-grasslands-savannas-and-shrublands-tropical-rainforest-forest-text-map-world-map.png",
            "https://www.researchgate.net/profile/Xiubo-Yu/publication/279864913/figure/fig6/AS:642474464788492@1530189257896/Proportion-of-biomes-areas-and-proportion-of-contained-sites.png"
        ]
    },
    {
        "habitat": "Shrubland - Subtropical/Tropical Moist",
        "image_urls": [
            "https://upload.wikimedia.org/wikipedia/commons/thumb/e/e2/Fluss_Dja_Somalomo.JPG/250px-Fluss_Dja_Somalomo.JPG",
            "https://upload.wikimedia.org/wikipedia/commons/thumb/f/fb/Biome_map_01.svg/1200px-Biome_map_01.svg.png",
            "https://c8.alamy.com/comp/MAA8BF/ecosystems-and-human-well-being-biodiversity-synthesis-oceanic-antarctic-terrestrial-biomes-tropical-and-sub-tropical-moist-broadleaf-forests-i-i-tropical-and-sub-tropical-dry-broadleaf-forests-i-i-tropical-and-sub-tropical-coniferous-forests-i-i-temperate-broadleaf-and-mixed-forests-1-temperate-coniferous-forests-i-i-boreal-forests-taiga-i-i-tundra-i-mediterranean-forests-woodlands-and-scrub-i-i-tropical-and-sub-tropical-grasslands-savannas-and-shrublands-i-i-temperate-grasslands-savannas-and-shrublands-i-i-montane-grasslands-and-shrublands-i-flooded-grasslands-and-sava-MAA8BF.jpg",
            "https://www.ecosystem-guides.com/images/rainforest-lowland-cape-trib.jpg",
            "https://journals.plos.org/plosone/article/figure/image?size=medium&id=10.1371/journal.pone.0043714.g001",
            "https://upload.wikimedia.org/wikipedia/commons/thumb/f/fb/Biome_map_01.svg/350px-Biome_map_01.svg.png",
            "https://www.researchgate.net/publication/331532608/figure/fig2/AS:733145401937923@1551806893443/continued-and-subtropical-grasslands-savannas-and-shrublands-TSMBF-tropical-and.png",
            "https://upload.wikimedia.org/wikipedia/commons/thumb/9/9e/Lifezones_Pengo%2C_TSMF.svg/250px-Lifezones_Pengo%2C_TSMF.svg.png",
            "https://upload.wikimedia.org/wikipedia/commons/thumb/7/78/Chacachacare_dry_forest_3.JPG/200px-Chacachacare_dry_forest_3.JPG",
            "https://upload.wikimedia.org/wikipedia/commons/thumb/f/ff/Ecoregions.png/640px-Ecoregions.png"
        ]
    },
    {
        "habitat": "Shrubland - Subtropical/Tropical High Altitude",
        "image_urls": [
            "https://upload.wikimedia.org/wikipedia/commons/8/88/Starr_010831-0016_Morella_faya.jpg",
            "https://c8.alamy.com/comp/2B1N95J/ornate-tinamou-nothoprocta-ornata-commonly-found-in-the-high-altitude-grassland-and-dry-shrubland-in-subtropical-and-tropical-regions-of-west-central-south-america-south-america-2B1N95J.jpg",
            "https://faunafocus.files.wordpress.com/2019/03/shrubland.jpg",
            "https://upload.wikimedia.org/wikipedia/commons/thumb/3/3b/Biome_map_07.svg/2000px-Biome_map_07.svg.png",
            "https://previews.123rf.com/images/mariedaloia/mariedaloia0805/mariedaloia080500023/3011764-a-delicate-and-graceful-brown-bellied-swallow-this-was-taken-at-pichincha-volcano-near-quito-in-ecua.jpg",
            "https://ars.els-cdn.com/content/image/3-s2.0-B9780120884490500108-f08-02-9780120884490.jpg",
            "https://www.researchgate.net/publication/331532608/figure/fig2/AS:733145401937923@1551806893443/continued-and-subtropical-grasslands-savannas-and-shrublands-TSMBF-tropical-and.png",
            "https://st4.depositphotos.com/6141066/41295/i/950/depositphotos_412959430-stock-photo-chiguanco-thrush-turdus-chiguanco-species.jpg",
            "https://upload.wikimedia.org/wikipedia/commons/thumb/e/e4/Vegetation.png/1200px-Vegetation.png",
            "https://i.pinimg.com/originals/52/ef/a9/52efa90e326c008f536190453231edfc.jpg"
        ]
    },
    {
        "habitat": "Grassland - Temperate",
        "image_urls": [
            "https://www.thoughtco.com/thmb/X3bHJaiEvY_fenAmbWl6sw_FkxI=/3906x2552/filters:fill(auto,1)/buffalo-gap-national-grasslands-56d40df05f9b5879cc8e69ac.jpg",
            "https://i.pinimg.com/originals/6a/fa/07/6afa07498bcdecf50716c2067c822e00.jpg",
            "https://cdn.britannica.com/17/133217-050-7EF4B14A/prairie-grassland-Buffalo-Gap-National-Grassland-South.jpg",
            "https://slideplayer.com/4121911/13/images/slide_1.jpg",
            "https://i.ytimg.com/vi/9FM7TXwgVsI/maxresdefault.jpg",
            "https://i.pinimg.com/originals/8e/a1/c2/8ea1c2bdf25c6b0fd9701fada740ff26.jpg",
            "http://kids.nceas.ucsb.edu/images/temperate_grassland/grass.jpg",
            "https://s3-us-west-1.amazonaws.com/contentlab.studiod/getty/c6bb364a4f2c481a821941f86e14b863",
            "https://www.oddizzi.com/wp-content/uploads/2012/08/img-eco-prairies2.jpg",
            "https://sites.google.com/site/temperategrassland/_/rsrc/1274656413788/home/grasslands_lrg.jpg?height=285&width=400"
        ]
    },
    {
        "habitat": "Grassland - Subtropical/Tropical Dry",
        "image_urls": [
            "http://uwrichlandbotany.pbworks.com/f/1253657169/Africa.jpg",
            "https://upload.wikimedia.org/wikipedia/commons/thumb/3/3b/Biome_map_07.svg/1200px-Biome_map_07.svg.png",
            "https://www.researchgate.net/profile/Elizabeth-Makings/publication/327582551/figure/fig65/AS:670697848311833@1536918236780/Subtropical-Australian-Spinifex-hummock-Grassland-at-an-elevation-of-ca-250-m-780-ft.jpg",
            "https://upload.wikimedia.org/wikipedia/commons/thumb/1/12/Biome_map_02.svg/1200px-Biome_map_02.svg.png",
            "https://s3-us-west-1.amazonaws.com/contentlab.studiod/getty/d09a70b71c72427e9197dde0fbaa45af",
            "https://upload.wikimedia.org/wikipedia/commons/e/ed/Subtropical_semi-evergreen_seasonal_forest_in_Northern_Thailand.JPG",
            "https://www.encyclopedie-environnement.org/app/uploads/2020/07/Savanes_couv.jpg",
            "https://www.researchgate.net/profile/Asuncion-Semper-Pascual/publication/346271124/figure/fig1/AS:961581223530497@1606270237868/3-Tropical-and-subtropical-dry-forests-and-savannas-in-the-world-top-map-and-location.png",
            "https://upload.wikimedia.org/wikipedia/commons/thumb/7/78/Chacachacare_dry_forest_3.JPG/200px-Chacachacare_dry_forest_3.JPG",
            "https://o.quizlet.com/i/xiYV8viFp8-vKBJOTdUlBg.jpg"
        ]
    },
    {
        "habitat": "Grassland - Subtropical/Tropical High Altitude",
        "image_urls": [
            "https://upload.wikimedia.org/wikipedia/commons/a/a1/Nachusa_Grasslands_Spring_2016.jpg",
            "https://upload.wikimedia.org/wikipedia/commons/3/35/Shola.jpg",
            "https://www.researchgate.net/profile/Elizabeth-Makings/publication/327582551/figure/fig65/AS:670697848311833@1536918236780/Subtropical-Australian-Spinifex-hummock-Grassland-at-an-elevation-of-ca-250-m-780-ft.jpg",
            "https://c8.alamy.com/comp/P88EWT/plain-capped-ground-tyrant-muscisaxicola-griseus-a-species-of-subtropical-or-tropical-high-altitude-grassland-P88EWT.jpg",
            "https://cdn.britannica.com/84/5384-050-C4D31AAA/Highveld-grassland-Heidelberg-SAf-Johannesburg.jpg",
            "https://cdn.britannica.com/17/133217-050-7EF4B14A/prairie-grassland-Buffalo-Gap-National-Grassland-South.jpg",
            "https://c8.alamy.com/comp/2B1N95J/ornate-tinamou-nothoprocta-ornata-commonly-found-in-the-high-altitude-grassland-and-dry-shrubland-in-subtropical-and-tropical-regions-of-west-central-south-america-south-america-2B1N95J.jpg",
            "https://geography.name/wp-content/uploads/2016/08/457547-1-519x640.jpg",
            "https://www.researchgate.net/publication/331532608/figure/fig2/AS:733145401937923@1551806893443/continued-and-subtropical-grasslands-savannas-and-shrublands-TSMBF-tropical-and.png",
            "https://o.quizlet.com/v94hwplAQOj1lr2OGK1JOQ.png"
        ]
    },
    {
        "habitat": "Savanna - Dry",
        "image_urls": [
            "https://www.vinello.eu/media/image/90/8c/80/savanna-premium-dry-cider-servier.png",
            "http://cdn.shopify.com/s/files/1/2788/1238/products/Savanna_Dry_1200x1200.jpg?v=1617086986",
            "https://southafricanwineusa.net/wp-content/uploads/2020/08/Savanna-Dry-1.jpg",
            "https://cdn.diffords.com/contrib/bws/2017/10/59db9703f1319.jpg",
            "https://www.hytotyto.co.za/wp-content/uploads/2019/09/Drinks-Savanna-Dry.jpg",
            "https://cdn.shopify.com/s/files/1/3026/9496/products/savanna-dry-500ml-nrb-6-pack-cider-780_530x@2x.png?v=1594449883",
            "https://i.ytimg.com/vi/2HDMJ8cnCY0/maxresdefault.jpg",
            "https://ciderexpertstorage.blob.core.windows.net/images/UserContent/CiderPics/Large/savanna-dry-cider-2df9d7.jpg",
            "https://chupapap.com/wp-content/uploads/2019/12/savanna-cider.jpg",
            "https://ke.jumia.is/unsafe/fit-in/680x680/filters:fill(white)/product/68/146721/1.jpg?5652"
        ]
    },
    {
        "habitat": "Grassland - Subtropical/Tropical Seasonally Wet/Flooded",
        "image_urls": [
            "https://esajournals.onlinelibrary.wiley.com/cms/asset/6d9f7f15-7f0e-4f4d-b083-98566cf752cf/ehs21240-fig-0001-m.jpg",
            "https://upload.wikimedia.org/wikipedia/commons/thumb/6/6e/Pantanal%2C_south-central_South_America_5170.jpg/300px-Pantanal%2C_south-central_South_America_5170.jpg",
            "https://www.researchgate.net/profile/Peter-Johnston-9/publication/316536199/figure/fig1/AS:551447161180160@1508486656027/Global-distribution-of-grasslands.png",
            "https://upload.wikimedia.org/wikipedia/commons/thumb/d/d9/K%C3%B6ppen_World_Map_Af_Am_Aw.png/1200px-K%C3%B6ppen_World_Map_Af_Am_Aw.png",
            "http://uwrichlandbotany.pbworks.com/f/at0907a.jpg",
            "https://upload.wikimedia.org/wikipedia/commons/f/ff/Ecoregions.png",
            "https://upload.wikimedia.org/wikipedia/commons/a/a1/Nachusa_Grasslands_Spring_2016.jpg",
            "https://s3.studylib.net/store/data/007736007_2-cedcd9ef18d8497f3166094996ebc3f0-768x994.png",
            "http://uwrichlandbotany.pbworks.com/f/1253646776/1253646776/847643300_e1fa6eb54d.jpg",
            "http://uwrichlandbotany.pbworks.com/f/1253657169/Africa.jpg"
        ]
    },
    {
        "habitat": "Marine Oceanic - Epipelagic (0-200m)",
        "image_urls": [
            "http://www.vibienxanh.vn/upload/2017/09/26/received_1897124603942190.jpeg",
            "https://images.slideplayer.com/31/9753678/slides/slide_2.jpg",
            "https://images.slideplayer.com/31/9753678/slides/slide_3.jpg",
            "https://images.slideplayer.com/31/9748000/slides/slide_10.jpg",
            "http://www.pobjoystamps.com/contents/media/l_ocean%20zones%20sheet_20161011125759.jpg",
            "https://vavauenvironment.files.wordpress.com/2018/07/ocean-layers.jpg",
            "https://upload.wikimedia.org/wikipedia/commons/thumb/b/b0/Oceanic_divisions.svg/400px-Oceanic_divisions.svg.png",
            "https://image1.slideserve.com/1703292/oceanic-zone-l.jpg",
            "https://images.slideplayer.com/31/9753678/slides/slide_4.jpg",
            "https://upload.wikimedia.org/wikipedia/commons/thumb/7/7a/Wfm_pelagic.png/260px-Wfm_pelagic.png"
        ]
    },
    {
        "habitat": "Marine Oceanic - Mesopelagic (200-1000m)",
        "image_urls": [
            "http://www.seasky.org/deep-sea/assets/images/ocean-layers-s00.jpg",
            "https://vavauenvironment.files.wordpress.com/2018/07/ocean-layers.jpg",
            "http://www.fao.org/fileadmin/user_upload/EAF-Nansen/img/Image-1.jpg",
            "http://divemagazine.co.uk/images/article-images/eco/Next_frontier/Zones_G1567D.jpg",
            "https://www.whoi.edu/wp-content/uploads/2018/04/top_488734-1200x771.jpg",
            "https://www.thoughtco.com/thmb/btcMakgIfqen0gRGOP8PNuVXQ1k=/1333x1000/smart/filters:no_upscale()/ocean_zones-6bbee774031f4612ab10a242272c9348.jpg",
            "https://fisheries.groupcls.com/wp-content/uploads/2019/11/mesopelagic.jpg",
            "https://ocean.si.edu/sites/default/files/styles/article_full_width/public/2020-10/ocean-layers-www-eoearth-org1.jpg?itok=41QjAE1N",
            "https://slideplayer.com/4909804/16/images/slide_1.jpg",
            "http://www.vibienxanh.vn/upload/2017/09/26/received_1897124603942190.jpeg"
        ]
    },
    {
        "habitat": "Marine Oceanic - Bathypelagic (1000-4000m)",
        "image_urls": [
            "https://o.quizlet.com/NLHmj8HAWzNRBanMvNTqlQ_b.jpg",
            "https://www.nps.gov/subjects/oceans/images/Ocean-Layers-from-www-eoearth-org_1.jpg?maxwidth=650&autorotate=false",
            "https://worldoceanreview.com/en/files/2013/04/wor2_c3b_s63_3-13_depth_zones_ocean.jpg",
            "https://o.quizlet.com/bGBz4QT1Xk6coRqTPjbiRQ_b.jpg",
            "http://www.fao.org/3/y5852e/Y5852E150.jpg",
            "https://untamedscience.com/wp-content/uploads/2013/10/DeepSeaZonesv1.jpg",
            "https://upload.wikimedia.org/wikipedia/commons/5/54/Layers_of_Ocean_%281%29.svg",
            "http://www.vibienxanh.vn/upload/2017/09/26/received_1897124603942190.jpeg",
            "https://www.marinebio.org/wp-content/uploads/2019/02/IMG_0022.jpg",
            "https://upload.wikimedia.org/wikipedia/commons/thumb/b/bc/Pelagiczone.svg/220px-Pelagiczone.svg.png"
        ]
    },
    {
        "habitat": "Savanna - Moist",
        "image_urls": [
            "https://upload.wikimedia.org/wikipedia/commons/3/37/Australian_savanna.jpg",
            "https://upload.wikimedia.org/wikipedia/commons/thumb/1/11/Savanna_towards_the_south-east_from_the_south-west_of_Taita_Hills_Game_Lodge_within_the_Taita_Hills_Wildlife_Sanctuary_in_Kenya.jpg/220px-Savanna_towards_the_south-east_from_the_south-west_of_Taita_Hills_Game_Lodge_within_the_Taita_Hills_Wildlife_Sanctuary_in_Kenya.jpg",
            "https://cdn.britannica.com/92/140492-050-0D2E3D22/Australian-Outback-trees-grasses-savanna-landscapes.jpg",
            "https://askabiologist.asu.edu/sites/default/files/resources/articles/savanna/Savanna-overlook-CT-Cooper-small.jpg",
            "https://cdn.britannica.com/52/104452-004-A5AB4938/Serengeti-Plain-Africa-feature-savanna-biome-example.jpg",
            "https://askabiologist.asu.edu/sites/default/files/resources/articles/savanna/Dry-serengeti-tommorphy-small.jpg",
            "https://cdn.britannica.com/s:300x169,c:crop/52/104452-004-A5AB4938/Serengeti-Plain-Africa-feature-savanna-biome-example.jpg",
            "https://userscontent2.emaze.com/images/1b726575-5800-4b1a-9990-64b19bed3572/c512b19d-1c75-4f93-bbe5-2e2eb6b27293.jpg",
            "https://i.pinimg.com/474x/a3/8c/3b/a38c3bcb0151c2ae3843eb874f475087.jpg",
            "https://cdn.britannica.com/83/6583-050-774CB410/Vegetation-profile-savanna.jpg"
        ]
    },
    {
        "habitat": "Wetlands (inland) - Bogs, Marshes, Swamps, Fens, Peatlands",
        "image_urls": [
            "http://www.personal.ceu.hu/students/03/nature_conservation/wwddetail/Image12.jpg",
            "http://www.personal.ceu.hu/students/03/nature_conservation/wwddetail/Image11.gif",
            "http://www.personal.ceu.hu/students/03/nature_conservation/wwddetail/Image6.jpg",
            "http://www.personal.ceu.hu/students/03/nature_conservation/wwddetail/Image3.jpg",
            "https://cdn.britannica.com/60/149960-050-FBCC1E92/Peat-bog-province-Overijssel-Enschede-Netherlands.jpg",
            "https://www.epa.gov/sites/production/files/styles/medium/public/2015-10/bog.jpg",
            "https://cdn.britannica.com/s:300x169,c:crop/12/83412-050-920ED168/Okavango-delta-Botswana.jpg",
            "https://www.epa.gov/sites/production/files/styles/large/public/2015-10/bogvl.jpg",
            "http://www.personal.ceu.hu/students/03/nature_conservation/wwddetail/Image2.gif",
            "https://cdn.britannica.com/40/123740-050-6C7B0B6A/Wetland-Marshall-county-Indiana.jpg"
        ]
    },
    {
        "habitat": "Artificial/Terrestrial - Rural Gardens",
        "image_urls": [
            "https://faunafocus.files.wordpress.com/2019/03/artificial-terrestrial.jpg",
            "https://ychef.files.bbci.co.uk/976x549/p08r5d9y.jpg",
            "https://ychef.files.bbci.co.uk/976x549/p08r5v1r.jpg",
            "https://ychef.files.bbci.co.uk/976x549/p08r30xb.jpg",
            "https://ychef.files.bbci.co.uk/976x549/p08r2zvl.jpg",
            "https://faunafocus.files.wordpress.com/2020/12/cropped-kea-4155893-1.jpg?w=350&h=200&crop=1",
            "https://faunafocus.files.wordpress.com/2018/08/cropped-andy-reago-chrissy-mclarren-41.jpg?w=350&h=200&crop=1",
            "https://faunafocus.files.wordpress.com/2020/02/cropped-janetandphil-1-e1582679502145-1.jpg?w=350&h=200&crop=1",
            "https://get.pxhere.com/photo/flowers-petals-nature-colorful-flower-flower-garden-smell-living-happiness-summer-bloom-plants-garden-village-rural-area-petal-leaf-red-pink-botany-flowering-plant-carmine-rose-family-garden-roses-magenta-rose-order-terrestrial-plant-floristry-plant-stem-rose-annual-plant-Hybrid-tea-rose-herbaceous-plant-vascular-plant-still-life-photography-perennial-plant-flower-arranging-floribunda-cut-flowers-rosa-centifolia-Pedicel-floral-design-fern-subshrub-herb-begonia-artificial-flower-1634780.jpg",
            "https://cdn.mos.cms.futurecdn.net/gNtbt4g3HrkqrgrY4acoSN-1200-80.jpeg"
        ]
    },
    {
        "habitat": "Artificial/Terrestrial - Urban Areas",
        "image_urls": [
            "https://cdn.britannica.com/38/146338-050-AEE619E8/Graph-petroleum-use-relationship-cities-population-density.jpg",
            "https://cdn.britannica.com/55/129555-050-7DF80C5F/view-subdivision-Quebec.jpg",
            "https://nph.onlinelibrary.wiley.com/cms/asset/2c47af94-cb5f-4e2c-9315-2684551105c4/ppp310143-fig-0001-m.jpg",
            "https://media.springernature.com/lw685/springer-static/image/art%3A10.1038%2Fs41598-019-53789-9/MediaObjects/41598_2019_53789_Fig1_HTML.png",
            "https://media.springernature.com/m685/springer-static/image/art%3A10.1038%2Fs41586-018-0140-0/MediaObjects/41586_2018_140_Fig1_HTML.jpg",
            "https://faunafocus.files.wordpress.com/2019/12/cropped-nathan-anderson-1.jpg?w=2560&h=799&crop=1",
            "https://science.sciencemag.org/content/sci/358/6363/eaam8327/F1.large.jpg?download=true",
            "https://esajournals.onlinelibrary.wiley.com/cms/asset/eeafda94-7c56-4838-affc-2f18da25149a/ecs22810-fig-0005-m.jpg",
            "https://www.frontiersin.org/files/MyHome%20Article%20Library/469218/469218_Thumb_400.jpg",
            "https://www.mdpi.com/water/water-10-01096/article_deploy/html/images/water-10-01096-g001.png"
        ]
    },
    {
        "habitat": "Forest - Subtropical/Tropical Swamp",
        "image_urls": [
            "https://1.bp.blogspot.com/-tPf2yoTdEyk/Wag0AzEbA0I/AAAAAAAAytU/nN-Qlx2bxbUcvrAMs24lhtBtCI4oB0dwQCK4BGAYYCw/s1600/Tropical%2BAnd%2BSubtropical%2BMoist%2BBroadleaf%2BForests%2B-%2BSubtropical%2BForest-786716.png",
            "https://cdn.britannica.com/90/3890-050-F451C580/rainforest-coast-lowland-rainforests-Ecuador-tropics-evergreen.jpg",
            "https://upload.wikimedia.org/wikipedia/commons/3/3e/Morava%27s_flooded_forest_02.jpg",
            "https://www.worldatlas.com/r/w768/upload/22/f5/90/shutterstock-575192125.jpg",
            "https://upload.wikimedia.org/wikipedia/commons/e/ed/Subtropical_semi-evergreen_seasonal_forest_in_Northern_Thailand.JPG",
            "https://upload.wikimedia.org/wikipedia/commons/thumb/8/8b/Ratargul_Swmp_Forest%C2%A9Md_Sharif_Hossain_Sourav.jpg/1200px-Ratargul_Swmp_Forest%C2%A9Md_Sharif_Hossain_Sourav.jpg",
            "https://images.squarespace-cdn.com/content/v1/54a5efeae4b034981b4ad42d/1427665386270-MKSSLUGYJX9R7XKFF525/taiga.jpg",
            "https://www.worldatlas.com/r/w1200/upload/e5/dc/0b/peat-swamp-forest-thailand.jpg",
            "https://upload.wikimedia.org/wikipedia/commons/thumb/e/e2/Fluss_Dja_Somalomo.JPG/250px-Fluss_Dja_Somalomo.JPG",
            "https://mongabay-images.s3.amazonaws.com/780/malaysia/sabah_3792.jpg"
        ]
    },
    {
        "habitat": "Shrubland - Temperate",
        "image_urls": [
            "https://upload.wikimedia.org/wikipedia/commons/8/88/Starr_010831-0016_Morella_faya.jpg",
            "https://www.sites.google.com/site/mrhogansbiomes/_/rsrc/1472853697719/temperate-woodland-and-shrubland/chaparral4.jpg?height=275&width=400",
            "https://d20khd7ddkh5ls.cloudfront.net/biome_temperate_woodlands.jpg",
            "https://www.biosch.hku.hk/ecology/courseware/envm7003_tutorial/img/CG623.JPG",
            "https://sierrraaamann.files.wordpress.com/2013/11/temp-woodland-shrubland.jpg?w=824",
            "https://s3-us-west-1.amazonaws.com/contentlab.studiod/getty/cache.gettyimages.com/fdd5a2683cc04147b12ae757f37e233c.jpg",
            "https://0901.static.prezi.com/preview/v2/4mua6wltpa5d2pmpkklmwkpn7l6jc3sachvcdoaizecfr3dnitcq_3_0.png",
            "http://shrubland-and-woodland.weebly.com/uploads/5/2/1/2/52128513/560945120.jpg?270",
            "https://earthobservatory.nasa.gov/img/biome/shrubland.jpg",
            "https://0701.static.prezi.com/preview/v2/fpki5pihqgdt5bvoyjykl6kq636jc3sachvcdoaizecfr3dnitcq_3_0.png"
        ]
    },
    {
        "habitat": "Marine Coastal/Supratidal - Coastal Freshwater Lakes",
        "image_urls": [
            "https://faunafocus.files.wordpress.com/2019/03/marine-coastal-supratidal-1.jpg?w=2560&h=1200&crop=1",
            "https://faunafocus.files.wordpress.com/2021/07/jpellgen.png",
            "https://upload.wikimedia.org/wikipedia/commons/3/3f/Olympic_Coast_National_Marine_Sanctuary.jpg",
            "https://upload.wikimedia.org/wikipedia/commons/2/28/Littoral_Zones.jpg",
            "https://upload.wikimedia.org/wikipedia/commons/d/dd/Tidal_flat_general_sketch.png",
            "https://upload.wikimedia.org/wikipedia/commons/1/14/Sebkha_El_Melah_-_2001.jpg",
            "https://oregonconservationstrategy.org/media/Fig-6-3a-spring-summer-upwelling-e1445020308563.png",
            "https://faunafocus.files.wordpress.com/2020/03/cropped-heather-paul-1-e1584801698298-1.jpg?w=350&h=200&crop=1",
            "https://www.researchgate.net/profile/Brian-Jones-24/publication/40661979/figure/fig6/AS:394323117002756@1471025365969/Context-of-palustrine-deposits-in-marine-coastal-environments-not-to-scale-A_Q640.jpg",
            "https://upload.wikimedia.org/wikipedia/commons/thumb/2/21/Sebkha_El_Melah_-_1987.jpg/300px-Sebkha_El_Melah_-_1987.jpg"
        ]
    },
    {
        "habitat": "Forest - Subtropical/Tropical Mangrove Vegetation Above High Tide Level",
        "image_urls": [
            "https://www.researchgate.net/publication/327189076/figure/fig1/AS:662875165184015@1535053163390/The-basic-idea-based-on-the-relationship-between-mangrove-forests-and-tide-levels.png",
            "https://upload.wikimedia.org/wikipedia/commons/thumb/1/1b/Mangroves_in_Kannur%2C_India.jpg/1200px-Mangroves_in_Kannur%2C_India.jpg",
            "https://article.study24x7.com/live/fd5c0b20-65e7-11ea-adce-f3ad16e57372/caf52000-65f0-11ea-adce-f3ad16e57372.png",
            "https://oceanservice.noaa.gov/facts/mangrove-forest.jpg",
            "https://media.springernature.com/lw785/springer-static/image/chp%3A10.1007%2F978-3-642-54601-3_129/MediaObjects/319960_2_En_129_Fig1_HTML.jpg",
            "https://static.wixstatic.com/media/7d1020_ffdb723e8f8543f69851ab697061a62a~mv2.jpg/v1/fill/w_1000,h_750,al_c,q_90,usm_0.66_1.00_0.01/7d1020_ffdb723e8f8543f69851ab697061a62a~mv2.jpg",
            "https://media.springernature.com/lw685/springer-static/image/art%3A10.1007%2Fs11273-020-09733-0/MediaObjects/11273_2020_9733_Fig1_HTML.png",
            "https://cdn.downtoearth.org.in/library/large/2019-04-16/0.84781000_1555407166_mang1.jpg",
            "https://ocean.si.edu/sites/default/files/styles/article_full_width/public/20488-MangroveRootsWater_1.jpg?itok=1DLCdApP",
            "https://climate.nasa.gov/system/news_items/main_images/2843_Simardimage2_w768.jpg"
        ]
    },
    {
        "habitat": "Wetlands (inland) - Seasonal/Intermittent/Irregular Rivers/Streams/Creeks",
        "image_urls": [
            "http://www.personal.ceu.hu/students/03/nature_conservation/wwddetail/Image3.jpg",
            "http://www.personal.ceu.hu/students/03/nature_conservation/wwddetail/Image2.gif",
            "http://www.personal.ceu.hu/students/03/nature_conservation/wwddetail/Image6.jpg",
            "http://www.personal.ceu.hu/students/03/nature_conservation/wwddetail/Image5.jpg",
            "http://www.personal.ceu.hu/students/03/nature_conservation/wwddetail/Image12.jpg",
            "http://www.personal.ceu.hu/students/03/nature_conservation/wwddetail/Image11.gif",
            "https://cdn.slidesharecdn.com/ss_thumbnails/typeswetlandformation-160415130530-thumbnail-4.jpg?cb=1460729001",
            "https://s3.studylib.net/store/data/007736007_2-cedcd9ef18d8497f3166094996ebc3f0-768x994.png",
            "https://www.mdpi.com/water/water-12-00260/article_deploy/html/images/water-12-00260-g001b.png",
            "https://slideplayer.com/slide/1630550/6/images/5/Wetlands+-+Nature%E2%80%99s+Filter.jpg"
        ]
    },
    {
        "habitat": "Wetlands (inland) - Shrub Dominated Wetlands",
        "image_urls": [
            "http://www.personal.ceu.hu/students/03/nature_conservation/wwddetail/Image2.gif",
            "https://upload.wikimedia.org/wikipedia/commons/8/8b/Flickr_-_ggallice_-_Swamp_in_Osceola_National_Forest.jpg",
            "https://www.maine.gov/dep/water/wetlands/images/aquatic_bed3.jpg",
            "https://www.environment.nsw.gov.au/-/media/OEH/Corporate-Site/Topics/Animals-and-plants/Native-plants/wavy-marshwort-nymphoides-crenata-macquarie-marshes-oehflickr.jpg?h=585&w=810&hash=0393A26A6E304239B45493701D6F33DF13E91830",
            "https://www.maine.gov/dep/water/wetlands/images/shrub.jpg",
            "http://www.nwplants.com/images/elements/gardens/wetlands_mr%20ducke_504915779%20(1)sm.jpg",
            "http://www.personal.ceu.hu/students/03/nature_conservation/wwddetail/Image3.jpg",
            "https://www.epa.gov/sites/production/files/styles/large/public/2015-10/bogvl.jpg",
            "http://www.environment.nsw.gov.au/-/media/OEH/Corporate-Site/Topics/Water/Water-for-the-environment/northern-macquarie-marshes-wavy-marshwort-nl.jpg",
            "https://www.epa.gov/sites/production/files/styles/medium/public/2015-10/bog.jpg"
        ]
    },
    {
        "habitat": "Wetlands (inland) - Seasonal/Intermittent Freshwater Lakes (over 8ha)",
        "image_urls": [
            "http://www.personal.ceu.hu/students/03/nature_conservation/wwddetail/Image3.jpg",
            "http://www.personal.ceu.hu/students/03/nature_conservation/wwddetail/Image2.gif",
            "http://www.personal.ceu.hu/students/03/nature_conservation/wwddetail/Image6.jpg",
            "http://www.personal.ceu.hu/students/03/nature_conservation/wwddetail/Image12.jpg",
            "http://www.personal.ceu.hu/students/03/nature_conservation/wwddetail/Image5.jpg",
            "https://www.nps.gov/piro/learn/nature/images/marshwalk-pond.jpg",
            "https://wwfeu.awsassets.panda.org/downloads/wwf_ramsar_report.pdf",
            "https://s3.studylib.net/store/data/007736007_2-cedcd9ef18d8497f3166094996ebc3f0.png",
            "https://slideplayer.com/slide/1630550/6/images/5/Wetlands+-+Nature%E2%80%99s+Filter.jpg",
            "https://images.squarespace-cdn.com/content/v1/567070822399a343227dd9c4/1451429123127-TIFUEKY9CM0XX5E6Q3IQ/wetland-photo-header.jpg"
        ]
    },
    {
        "habitat": "Wetlands (inland) - Permanent Freshwater Marshes/Pools (under 8ha)",
        "image_urls": [
            "http://www.personal.ceu.hu/students/03/nature_conservation/wwddetail/Image2.gif",
            "http://www.personal.ceu.hu/students/03/nature_conservation/wwddetail/Image3.jpg",
            "https://www.nps.gov/im/netn/images/freshwater-wetland-monitoring-banner.jpg",
            "http://carolinawetlands.org/wp-content/uploads/2017/07/Lockwood_Folly_Tidal_freshwater_marsh_Micheal_burchell.jpg",
            "https://www.maine.gov/dep/water/wetlands/images/aquatic_bed3.jpg",
            "http://www.ncwetlands.org/wp-content/uploads/scene-riverine-swamp-forest-Seawatch-NC-KG-scaled.jpg",
            "https://www.britannica.com/explore/savingearth/wp-content/uploads/sites/4/2019/03/wetland-hero.jpg",
            "http://www.ncwetlands.org/wp-content/uploads/tidal-freshwater-marsh-Sturgeon-Creek-Brunswick-County.jpg",
            "https://geochange.er.usgs.gov/sw/impacts/hydrology/wetlands/inland.jpg",
            "https://media.nationalgeographic.org/assets/photos/000/281/28150.jpg"
        ]
    },
    {
        "habitat": "Wetlands (inland) - Seasonal/Intermittent Freshwater Marshes/Pools (under 8ha)",
        "image_urls": [
            "http://www.personal.ceu.hu/students/03/nature_conservation/wwddetail/Image3.jpg",
            "http://www.personal.ceu.hu/students/03/nature_conservation/wwddetail/Image2.gif",
            "https://www.nps.gov/piro/learn/nature/images/marshwalk-pond.jpg?maxwidth=1200&autorotate=false",
            "https://www.britannica.com/explore/savingearth/wp-content/uploads/sites/4/2019/03/wetland-hero.jpg",
            "http://carolinawetlands.org/wp-content/uploads/2017/07/Lockwood_Folly_Tidal_freshwater_marsh_Micheal_burchell.jpg",
            "https://www.epa.gov/sites/production/files/styles/large/public/2015-10/bogvl.jpg",
            "http://www.ncwetlands.org/wp-content/uploads/tidal-freshwater-marsh-Sturgeon-Creek-Brunswick-County.jpg",
            "https://www.nps.gov/piro/learn/nature/images/vernal-pool_455640_2.JPG?maxwidth=650&autorotate=false",
            "https://cdn.britannica.com/10/6610-050-242CCFE5/freshwater-marsh-palms-saw-grass-cypresses-Florida.jpg",
            "http://www.ncwetlands.org/wp-content/uploads/scene-riverine-swamp-forest-Seawatch-NC-KG-scaled.jpg"
        ]
    },
    {
        "habitat": "Wetlands (inland) - Freshwater Springs and Oases",
        "image_urls": [
            "https://smartwatermagazine.com/sites/default/files/styles/thumbnail-830x455/public/wetlands_0.jpg?itok=DMsk9W40",
            "http://www.personal.ceu.hu/students/03/nature_conservation/wwddetail/Image3.jpg",
            "http://scwrp.org/wp-content/uploads/2013/08/IMG_6351.jpg",
            "http://www.personal.ceu.hu/students/03/nature_conservation/wwddetail/Image2.gif",
            "https://i.guim.co.uk/img/media/e67cd7acb06d872fbe907571036e18de2b79c8ff/0_481_4888_2933/master/4888.jpg?width=1200&height=900&quality=85&auto=format&fit=crop&s=1dc105bceef2f51b05f677d36b255726",
            "https://www.treehugger.com/thmb/8jtyjpEvnu9C_VPQzXxfD86fF28=/2128x1409/filters:no_upscale():max_bytes(150000):strip_icc()/GettyImages-1154630782-8d3967dad59f4aada6fb7adf130b59fa.jpg",
            "https://scwrp.org/wp-content/uploads/2016/02/tijuana-1.jpg",
            "http://www.personal.ceu.hu/students/03/nature_conservation/wwddetail/Image5.jpg",
            "https://qph.fs.quoracdn.net/main-qimg-04572b82a57357a16fc0ae2b87b73b6d",
            "http://www.personal.ceu.hu/students/03/nature_conservation/wwddetail/Image6.jpg"
        ]
    },
    {
        "habitat": "Marine Neritic - Estuaries",
        "image_urls": [
            "https://bodell.mtchs.org/OnlineBio/BIOCD/text/chapter34/34images/34-21.gif",
            "https://s3-us-west-2.amazonaws.com/courses-images/wp-content/uploads/sites/1223/2017/02/09235555/Figure_44_04_02.jpg",
            "https://ocs.ecotrust.org/media/smallerNorthern-Anchovy-Geoff-Shester-Oceana-e1447358469412-750x563.jpg",
            "https://upload.wikimedia.org/wikipedia/commons/2/22/Mattole_River_Estuary_2005.jpg",
            "https://dr282zn36sxxg.cloudfront.net/datastreams/f-d%3A8766da6401672a85a15d3e995a378efa7ab84f57a68ab7c038e23f66%2BIMAGE_THUMB_POSTCARD_TINY%2BIMAGE_THUMB_POSTCARD_TINY.1",
            "https://images.slideplayer.com/32/10077642/slides/slide_3.jpg",
            "https://upload.wikimedia.org/wikipedia/commons/thumb/6/67/World_map_of_bathymetric_data_-_GEBCO_2014.jpg/350px-World_map_of_bathymetric_data_-_GEBCO_2014.jpg",
            "https://pixfeeds.com/images/31/606914/1280-different-zones-of-oceanic-ecosystem.png",
            "https://o.quizlet.com/1L1Nc-fIw4nckM7qGXI6qQ.png",
            "https://slideplayer.com/slide/14697412/90/images/30/Our+ocean+has+many+ecosystems%3A.jpg"
        ]
    },
    {
        "habitat": "Caves and Subterranean Habitats (non-aquatic) - Other Subterranean Habitats",
        "image_urls": [
            "https://mediacdn.nhbs.com/jackets/jackets_resizer_xlarge/24/245023.jpg",
            "https://faunafocus.files.wordpress.com/2019/03/caves-subterranean.jpg?w=2560&h=1200&crop=1",
            "https://www.mdpi.com/diversity/diversity-13-00210/article_deploy/html/images/diversity-13-00210-g001.png",
            "https://www.researchgate.net/profile/Stefano-Mammola/publication/327215187/figure/fig1/AS:734127598866432@1552041067302/A-modern-ecological-classification-of-subterranean-organisms-Trajano-2012-recently.jpg",
            "https://mediacdn.nhbs.com/jackets/jackets_resizer_xlarge/24/245023_2.jpg",
            "https://mediacdn.nhbs.com/jackets/jackets_resizer_xlarge/24/245023_4.jpg",
            "http://www.earthtimes.org/newsimage/biological-community-building_1_18412.jpg",
            "http://sofiareboleira.weebly.com/uploads/1/8/8/0/18805944/cave-diplura_orig.png",
            "https://mediacdn.nhbs.com/jackets/jackets_resizer_xlarge/24/245023_3.jpg",
            "https://images-na.ssl-images-amazon.com/images/I/513JVI6yTWL._SY291_BO1,204,203,200_QL40_ML2_.jpg"
        ]
    },
    {
        "habitat": "Artificial/Terrestrial - Subtropical/Tropical Heavily Degraded Former Forest",
        "image_urls": [
            "https://bdj.pensoft.net/showimg.php?filename=d200x_511706.jpg",
            "https://upload.wikimedia.org/wikipedia/commons/thumb/5/57/El_bosque_inundado_amazonico-cosmocaixa-2009_%282%29.JPG/440px-El_bosque_inundado_amazonico-cosmocaixa-2009_%282%29.JPG",
            "https://www.researchgate.net/profile/Andrew-Marshall-29/publication/339815126/figure/fig2/AS:883846669164550@1587736875425/Liana-proliferation-forming-blankets-towers-and-cones-over-secondary-forest_Q320.jpg",
            "https://binary.pensoft.net/fig/350910/singlefig",
            "http://www.fao.org/3/i8392en/I8392EN.pdf",
            "https://bdj.pensoft.net/article/39342/download/fig/5297341/",
            "https://onlinelibrary.wiley.com/cms/asset/3466d300-bb15-4882-b5fc-90afbeb14aa6/gcb15374-fig-0001-m.jpg",
            "https://binary.pensoft.net/fig/350947/singlefig",
            "https://d3hnfqimznafg0.cloudfront.net/images/Article_Images/ImageForArticle_1216_16184765250962729.jpg",
            "https://faunafocus.files.wordpress.com/2019/03/artificial-terrestrial.jpg"
        ]
    },
    {
        "habitat": "Caves and Subterranean Habitats (non-aquatic) - Caves",
        "image_urls": [
            "https://faunafocus.files.wordpress.com/2019/03/caves-subterranean.jpg?w=2560&h=1200&crop=1",
            "https://mediacdn.nhbs.com/jackets/jackets_resizer_xlarge/24/245023.jpg",
            "http://www.earthtimes.org/newsimage/biological-community-building_1_18412.jpg",
            "https://www.treehugger.com/thmb/hTv8bsm988DrWQz15l7ZNP6qee8=/3376x3376/smart/filters:no_upscale()/luray-underground-1203414271-694cc05a0220496eb1b4b06e6012ddb0.jpg",
            "https://i.natgeofe.com/n/f3500942-4eb9-4dfa-b6c9-53cd5510cd46/47789.jpg",
            "https://upload.wikimedia.org/wikipedia/commons/thumb/0/02/Lechuguilla_Cave_Pearlsian_Gulf.jpg/1200px-Lechuguilla_Cave_Pearlsian_Gulf.jpg",
            "https://www.mdpi.com/diversity/diversity-13-00210/article_deploy/html/images/diversity-13-00210-g001.png",
            "https://oceanexplorer.noaa.gov/explorations/11bermuda/background/biology/media/church-cave-800.jpg",
            "https://i.natgeofe.com/n/edb25377-f994-4d42-a669-3d883520a589/slovenia-river-caves-jama.jpg",
            "https://cdn.cnn.com/cnnnext/dam/assets/160824164842-hang-son-doong-10hang-en-campsite-full-169.jpg"
        ]
    },
    {
        "habitat": "Forest - Boreal",
        "image_urls": [
            "https://image.slidesharecdn.com/theborealforest-140218195545-phpapp01/95/the-boreal-forest-1-638.jpg?cb=1392753660",
            "https://www.esa.int/var/esa/storage/images/esa_multimedia/images/2008/10/boreal_forest/10300920-2-eng-GB/Boreal_forest_pillars.jpg",
            "https://www.ibrahimnazer.com/wp-content/uploads/2018/09/boreal-forest.jpg",
            "https://cdn.britannica.com/50/6650-050-E268AC16/coniferous-forest-spruce-trees-forests-boreal-Northern.jpg",
            "https://image.shutterstock.com/image-photo/drone-aerial-view-northern-boreal-260nw-1744808348.jpg",
            "https://canopyplanet.org/wp-content/uploads/2015/03/BroadbackMelissa1.jpg",
            "https://cwf-fcf.org/assets/images/boreal-forest-2020/Impressions_Of_A_Boreal_Forest_216534525.jpg",
            "https://unearthed.greenpeace.org/wp-content/uploads/2017/08/GP04DN4_Medium_res-1.jpg",
            "http://borealforestfacts.com/wp-content/uploads/2013/09/what_is_the_canadian_boreal_forest.jpg",
            "https://duazurecdn.azureedge.net/media-manager/20160815/c955466b-ecff-4550-8f5d-c74a4c3dffb5/768/Boreal-1.jpg"
        ]
    },
    {
        "habitat": "Artificial/Aquatic - Water Storage Areas (over 8ha)",
        "image_urls": [
            "https://www.mdpi.com/water/water-13-00569/article_deploy/html/images/water-13-00569-ag-550.jpg",
            "https://s3.studylib.net/store/data/007736007_2-cedcd9ef18d8497f3166094996ebc3f0.png",
            "http://www.uicnmed.org/web2007/cd_rep_amp/materials/amph_summery/rana_arvalis.pdf",
            "https://groundwaterexchange.org/wp-content/uploads/2020/08/C1308_508.pdf",
            "https://www.yumpu.com/en/image/facebook/33622062.jpg",
            "https://www.cepf.net/resources/documents/iucn-freshwater-kba-validation-delineation-workshop-eastern-mediterranean",
            "http://www.uicnmed.org/web2007/cd_rep_amp/materials/amph_summery/rana_kurtmuelleri.pdf",
            "https://imgv2-2-f.scribdassets.com/img/document/380775007/298x396/06c20ebfc2/1527902886?v=1",
            "https://ars.els-cdn.com/content/image/1-s2.0-S0006320721001816-gr4.jpg",
            "http://www.uicnmed.org/web2007/cd_rep_amp/materials/amph_summery/triturus_italicus.pdf"
        ]
    },
    {
        "habitat": "Artificial/Aquatic - Ponds (below 8ha)",
        "image_urls": [
            "https://www.mdpi.com/water/water-13-00569/article_deploy/html/images/water-13-00569-ag.png",
            "https://www.researchgate.net/profile/Mariana-Batista-7/publication/282686278/figure/fig1/AS:393867036774405@1470916627682/Some-of-the-sampled-water-bodies-A-Artificial-pond-around-three-meters-deep-B.png",
            "https://media.springernature.com/lw685/springer-static/image/art%3A10.1007%2Fs10531-020-02020-7/MediaObjects/10531_2020_2020_Fig1_HTML.jpg",
            "https://www.mdpi.com/2223-7747/10/6/1035/pdf",
            "https://www.researchgate.net/profile/Daniel-Hughes-3/publication/301765878/figure/fig2/AS:357042075258881@1462136872145/Habitat-pictures-of-eight-artificial-ponds-in-Westmoreland-County-Rector-Pennsylvania_Q320.jpg",
            "https://media.springernature.com/lw685/springer-static/image/art%3A10.1007%2Fs10531-020-02020-7/MediaObjects/10531_2020_2020_Fig2_HTML.jpg",
            "https://onlinelibrary.wiley.com/cms/asset/a29970dd-36c8-450c-a489-1ec858d487f3/jwas12269-fig-0002-m.jpg",
            "http://www.uicnmed.org/web2007/cd_rep_amp/materials/amph_summery/triturus_vittatus.pdf",
            "https://imgv2-2-f.scribdassets.com/img/document/430980860/298x396/5a94154a68/1571450345?v=1",
            "https://i1.rgstatic.net/publication/333263246_International_Journal_of_Fisheries_and_Aquatic_Studies_2018_65_342-347_Surface_aeration_systems_for_application_in_aquaculture_A_review/links/5fbd56b6299bf104cf7416c6/largepreview.png"
        ]
    },
    {
        "habitat": "Desert - Temperate",
        "image_urls": [
            "https://cadi.uni-greifswald.de/wp-content/uploads/2017/07/loess-desert-Teresa-Kewitsch-1030x772-1030x772.jpg",
            "https://cdn.britannica.com/39/142139-050-7EFA4015/Simpson-Desert-Australia.jpg",
            "https://photos.demandstudios.com/getty/article/251/168/87776061_XS.jpg",
            "https://cadi.uni-greifswald.de/wp-content/uploads/2017/10/DSC_8258-1030x687.jpg",
            "http://environmentalsciencebiomes.weebly.com/uploads/7/0/2/3/7023838/9503210.jpg?1353425161",
            "https://earthobservatory.nasa.gov/img/biome/desert.jpg",
            "https://cdn.slidesharecdn.com/ss_thumbnails/temperatedesert-161011235610-thumbnail-4.jpg?cb=1476230207",
            "http://etdets.weebly.com/uploads/1/7/5/5/17552253/866880.jpg",
            "https://cdn.britannica.com/88/6588-004-62934F56/distribution-deserts.jpg",
            "https://www.activewild.com/wp-content/uploads/2020/09/Gobi-Desert.jpg"
        ]
    },
    {
        "habitat": "Marine Intertidal - Rocky Shoreline",
        "image_urls": [
            "https://pacificbirds.org/wp-content/uploads/2018/01/Habitat_Intertidal-Rocy-Shoreline-wikipedia.jpg",
            "http://outerisland.org/data/uploads/images/intertidal_ecology/rocky_intertidal/rocky_top.jpg",
            "https://www.nps.gov/common/uploads/stories/images/nri/20160721/articles/9373B7F3-1DD8-B71B-0BCB7164017CEF1D/9373B7F3-1DD8-B71B-0BCB7164017CEF1D.jpg",
            "https://www.nps.gov/subjects/oceans/images/Intertidal_Banner.jpg?maxwidth=1200&maxheight=1200&autorotate=false",
            "http://www.piscoweb.org/sites/default/files/photos/AllieBarnerOregon.jpg",
            "https://www.nps.gov/articles/images/boha2.jpg?maxwidth=1200&maxheight=1200&autorotate=false",
            "https://www.pewtrusts.org/-/media/post-launch-images/2019/04/oregonrockyshore_1/16x9_m.jpg",
            "https://climateactiontool.org/sites/default/files/RockyShore_NOAA%20NMFS%20SWFSC_RogerHewitt.jpg",
            "https://www.qld.gov.au/__data/assets/image/0032/67379/rocky-shore.jpg",
            "https://guides.nynhp.org/media/i18574.jpg"
        ]
    },
    {
        "habitat": "Marine Intertidal - Sandy Shoreline and/or Beaches, Sand Bars, Spits, Etc",
        "image_urls": [
            "https://www.ecoshape.org/app/uploads/sites/2/2020/05/1703.png",
            "https://www.ecoshape.org/app/uploads/sites/2/2020/05/1714.png",
            "https://www.ecoshape.org/app/uploads/sites/2/2020/05/HPZ-completed.jpg",
            "http://marinespecies.org/i/images/thumb/e/ea/RSFFFig1.jpg/500px-RSFFFig1.jpg",
            "http://marinespecies.org/i/images/thumb/c/cc/RSFFFig2NEW.jpg/800px-RSFFFig2NEW.jpg",
            "https://www.researchgate.net/profile/Antonio-Rodriguez-Ramirez/publication/263617345/figure/fig8/AS:670456063483913@1536860590686/Panoramic-view-of-El-Manto-spit-showing-the-terminal-sand-bar-system-and-the-erosional.png",
            "http://www.marinespecies.org/r/images/thumb/3/30/CoastalZonation.jpg/700px-CoastalZonation.jpg",
            "http://marinespecies.org/i/images/thumb/7/77/RSFFFig4.jpg/400px-RSFFFig4.jpg",
            "https://upload.wikimedia.org/wikipedia/commons/e/e6/Newport_beach.jpg",
            "https://www.mdpi.com/water/water-12-01446/article_deploy/html/images/water-12-01446-g001.png"
        ]
    },
    {
        "habitat": "Marine Coastal/Supratidal - Sea Cliffs and Rocky Offshore Islands",
        "image_urls": [
            "https://faunafocus.files.wordpress.com/2019/03/marine-coastal-supratidal-1.jpg?w=2560&h=1200&crop=1",
            "https://faunafocus.files.wordpress.com/2021/07/jpellgen.png",
            "https://oregonconservationstrategy.org/media/Fig-6-3a-spring-summer-upwelling-e1445020308563.png",
            "https://upload.wikimedia.org/wikipedia/commons/2/28/Littoral_Zones.jpg",
            "https://media.springernature.com/original/springer-static/image/prt%3A978-94-007-6238-1%2F3/MediaObjects/978-94-007-6238-1_3_Part_Fig1-152_HTML.jpg",
            "https://ars.els-cdn.com/content/image/3-s2.0-B9780128182345000535-f00053-11-9780128182345.jpg",
            "https://www.mdpi.com/remotesensing/remotesensing-12-01880/article_deploy/html/images/remotesensing-12-01880-g013.png",
            "https://mem.lyellcollection.org/content/40/1/89.full.pdf",
            "https://mem.lyellcollection.org/content/40/1/89.full.pdf",
            "https://www.researchgate.net/profile/Anne-Duperret/publication/280712127/figure/fig6/AS:668580504936450@1536413422075/A-Mesnil-Val-coastal-site-PUN-coast-view-to-the-south-with-vertical-chalk-cliffs-up.png"
        ]
    },
    {
        "habitat": "Marine Neritic - Pelagic",
        "image_urls": [
            "https://cdn.britannica.com/67/6567-050-142FC00A/ocean-Zonation-pelagic-zone-waters-globe-continental.jpg",
            "https://rwu.pressbooks.pub/app/uploads/sites/7/2017/01/Oceanic_divisions.png",
            "https://img.jagranjosh.com/imported/images/E/Articles/Neritic-Zone-img.jpg",
            "https://s3-us-west-2.amazonaws.com/courses-images/wp-content/uploads/sites/3396/2018/06/28180042/Figure_44_04_01.png",
            "http://media-2.web.britannica.com/eb-media/67/6567-004-19E445F7.jpg",
            "http://www.seaturtle.org/glossary/images/40.jpg",
            "https://qph.fs.quoracdn.net/main-qimg-7e1236068abd3603471f14922f10a979.webp",
            "https://www.marinebio.net/marinescience/01intro/woimg/xsecpelben.jpg",
            "http://www.biocab.org/Marine_Environments.jpg",
            "https://static.wikia.nocookie.net/dragonflyissuesinevolution13/images/3/31/PelagicZoneDiagram.gif/revision/latest?cb=20131013132519"
        ]
    },
    {
        "habitat": "Artificial/Aquatic - Irrigated Land (includes irrigation channels)",
        "image_urls": [
            "https://cdn.britannica.com/70/156670-050-7E37C3D6/Irrigation-canal-farm-field.jpg",
            "https://previews.123rf.com/images/lesik/lesik1808/lesik180801192/106289572-an-old-drying-up-irrigation-channel-with-remains-of-water-at-bottom-of-canal-blockade-of-water-irrig.jpg",
            "https://previews.123rf.com/images/lesik/lesik1808/lesik180801019/106415092-an-old-drying-up-irrigation-channel-with-remains-of-water-at-bottom-of-canal-blockade-of-water-irrig.jpg",
            "https://previews.123rf.com/images/lesik/lesik1808/lesik180801181/106415146-an-old-drying-up-irrigation-channel-with-remains-of-water-at-bottom-of-canal-blockade-of-water-irrig.jpg",
            "https://previews.123rf.com/images/lesik/lesik1808/lesik180801016/106413762-an-old-drying-up-irrigation-channel-with-remains-of-water-at-bottom-of-canal-blockade-of-water-irrig.jpg",
            "https://previews.123rf.com/images/lesik/lesik1808/lesik180801176/106415133-an-old-drying-up-irrigation-channel-with-remains-of-water-at-bottom-of-canal-blockade-of-water-irrig.jpg",
            "https://previews.123rf.com/images/lesik/lesik1808/lesik180800974/106412759-an-old-drying-up-irrigation-channel-with-remains-of-water-at-bottom-of-canal-blockade-of-water-irrig.jpg",
            "https://www.conserve-energy-future.com/wp-content/uploads/2020/07/tractor-irrigating-watering-field.jpg",
            "https://cdn.britannica.com/35/157635-050-69B43759/Irrigation-sprinklers.jpg",
            "https://www.mdpi.com/water/water-10-01096/article_deploy/html/images/water-10-01096-g001.png"
        ]
    },
    {
        "habitat": "Artificial/Aquatic - Seasonally Flooded Agricultural Land",
        "image_urls": [
            "https://www.mdpi.com/water/water-10-01096/article_deploy/html/images/water-10-01096-g001.png",
            "https://ychef.files.bbci.co.uk/976x549/p08r5v1r.jpg",
            "https://media.nationalgeographic.org/assets/photos/199/217/0efccc2b-4465-4a02-8aa3-b3e5343076a5.jpg",
            "https://www.preventionweb.net/files/73809_largeImage.jpg",
            "https://www.mdpi.com/water/water-10-01096/article_deploy/html/images/water-10-01096-g005.png",
            "http://www.scienceclarified.com/photos/floodplain-2953.jpg",
            "https://www.mdpi.com/water/water-10-01096/article_deploy/html/images/water-10-01096-g002.png",
            "https://images.theconversation.com/files/359109/original/file-20200921-24-1mskezg.jpg?ixlib=rb-1.1.0&q=45&auto=format&w=1200&h=1200.0&fit=crop",
            "https://hcr2018.s3.eu-west-2.amazonaws.com/wp-content/uploads/2019/01/28134413/Draining-water-from-your-land_blog-.jpg",
            "https://cdn.britannica.com/70/156670-050-7E37C3D6/Irrigation-canal-farm-field.jpg"
        ]
    },
    {
        "habitat": "Artificial/Aquatic - Canals and Drainage Channels, Ditches",
        "image_urls": [
            "https://cdn.britannica.com/70/156670-050-7E37C3D6/Irrigation-canal-farm-field.jpg",
            "https://www2.usgs.gov/water/southatlantic/nc/projects/tile_drains/icons/ditch3.jpg",
            "https://previews.123rf.com/images/lesik/lesik1808/lesik180801181/106415146-an-old-drying-up-irrigation-channel-with-remains-of-water-at-bottom-of-canal-blockade-of-water-irrig.jpg",
            "https://previews.123rf.com/images/lesik/lesik1808/lesik180801192/106289572-an-old-drying-up-irrigation-channel-with-remains-of-water-at-bottom-of-canal-blockade-of-water-irrig.jpg",
            "https://thumbs.dreamstime.com/b/canals-waterways-channels-artificial-water-conveyance-to-service-transport-vehicles-174803874.jpg",
            "https://previews.123rf.com/images/lesik/lesik1808/lesik180801019/106415092-an-old-drying-up-irrigation-channel-with-remains-of-water-at-bottom-of-canal-blockade-of-water-irrig.jpg",
            "https://thumbs.dreamstime.com/z/canals-waterways-channels-artificial-waterways-water-conveyance-to-service-water-transport-vehicles-canals-174803911.jpg",
            "https://c8.alamy.com/comp/2CEHT0Y/a-man-made-canal-with-cobblestone-walls-for-drainage-and-overflow-2CEHT0Y.jpg",
            "https://previews.123rf.com/images/lesik/lesik1808/lesik180801016/106413762-an-old-drying-up-irrigation-channel-with-remains-of-water-at-bottom-of-canal-blockade-of-water-irrig.jpg",
            "https://previews.123rf.com/images/lesik/lesik1808/lesik180801176/106415133-an-old-drying-up-irrigation-channel-with-remains-of-water-at-bottom-of-canal-blockade-of-water-irrig.jpg"
        ]
    },
    {
        "habitat": "Wetlands (inland) - Permanent Saline, Brackish or Alkaline Marshes/Pools",
        "image_urls": [
            "https://smartwatermagazine.com/sites/default/files/wetlands_0.jpg",
            "http://www.personal.ceu.hu/students/03/nature_conservation/wwddetail/Image3.jpg",
            "https://wwfeu.awsassets.panda.org/downloads/wwf_ramsar_report.pdf",
            "https://forum.eionet.europa.eu/european-red-list-habitats/library/terrestrial-habitats/c.-freshwater/c1.5-permanent-inland-saline-and-brackish-waterbody/download/en/1/C1.5%20Permanent%20inland%20saline%20and%20brackish%20waterbody.pdf",
            "https://smartwatermagazine.com/sites/default/files/styles/thumbnail-480x263/public/wetland_wikipedia.jpg?itok=kDde5SsT",
            "https://www.basu.org.in/wp-content/uploads/2020/10/wetlands.pdf",
            "http://www.personal.ceu.hu/students/03/nature_conservation/wwddetail/Image2.gif",
            "https://image.isu.pub/141113214252-bf9af7cf192d92c39eae49406491256c/jpg/page_1.jpg",
            "https://cdn.slidesharecdn.com/ss_thumbnails/typeswetlandformation-160415130530-thumbnail-4.jpg?cb=1460729001",
            "https://wwfeu.awsassets.panda.org/downloads/wwf_ramsar_report.pdf"
        ]
    },
    {
        "habitat": "Marine Neritic - Subtidal Muddy",
        "image_urls": [
            "https://faunafocus.files.wordpress.com/2019/03/marine-neritic-1.jpg",
            "https://faunafocus.files.wordpress.com/2019/03/marine-neritic-1.jpg?w=2560&h=1200&crop=1",
            "https://www.oregonconservationstrategy.org/media/Sanddollars2_ODFW_9-28-15-e1450111247378-750x423.jpg",
            "https://bodell.mtchs.org/OnlineBio/BIOCD/text/chapter34/34images/34-21.gif",
            "https://media.springernature.com/lw785/springer-static/image/prt%3A978-3-540-31079-2%2F13/MediaObjects/978-3-540-31079-2_13_Part_Fig4_HTML.jpg",
            "http://blog1.miami.edu/sharklab/wp-content/uploads/sites/28/2018/07/MODULE-1-Ocean-and-Coastal-Habitat-SECTION-1-Ocean-Zones.pdf",
            "https://faunafocus.files.wordpress.com/2019/06/cropped-9765279464_499deca38e_o-1.jpg?w=350&h=200&crop=1",
            "https://s3-us-west-2.amazonaws.com/courses-images/wp-content/uploads/sites/1223/2017/02/09235555/Figure_44_04_02.jpg",
            "https://media.springernature.com/original/springer-static/image/chp%3A10.1007%2F978-90-481-9289-2_7/MediaObjects/978-90-481-9289-2_7_Fig2_HTML.gif",
            "https://wetlandinfo.des.qld.gov.au/resources/static/images/ecology/aquatic-ecosystems-natural/marine/intertidal-subtidal/urangan-seagrass-n-kastner.jpg"
        ]
    },
    {
        "habitat": "Marine Neritic - Macroalgal/Kelp",
        "image_urls": [
            "https://upload.wikimedia.org/wikipedia/commons/6/67/Kelp_forest.jpg",
            "https://theliquidgrid.com/wp-content/uploads/2021/01/pexels-lachlan-ross-5967952.jpg",
            "https://upload.wikimedia.org/wikipedia/commons/6/67/Fucus_serratus_2015-09-08_ag_M0010140.jpg",
            "https://www.sierraclub.org/sites/www.sierraclub.org/files/styles/flexslider_full/public/sierra/articles/big/Monterey%20Bay%20algae%20WB.jpeg?itok=8Flkkn_V",
            "https://esajournals.onlinelibrary.wiley.com/cms/asset/8c63b8ee-76b0-4a9e-8d52-216c324fa74e/ecs22602-fig-0001-m.jpg",
            "https://www.natureasia.com/en/nmiddleeast/figures/1986/macroalgae%20article.jpg",
            "https://media.springernature.com/original/springer-static/image/chp%3A10.1007%2F978-3-030-33208-2_4/MediaObjects/429069_1_En_4_Figc_HTML.jpg",
            "https://i2.wp.com/sitn.hms.harvard.edu/wp-content/uploads/2019/07/kelp_noaa_banner.jpg?fit=3000%2C1200",
            "https://media.springernature.com/lw685/springer-static/image/art%3A10.1038%2Fngeo2790/MediaObjects/41561_2016_Article_BFngeo2790_Fig2_HTML.jpg",
            "https://cdn.helena.org/wordpress/app/uploads/2020/11/03035800/seaweed-4.jpg"
        ]
    },
    {
        "habitat": "Marine Neritic - Coral Reef",
        "image_urls": [
            "https://www.thoughtco.com/thmb/oEcGKOfLkueCwfDXPcBOYSyUMVU=/1333x1000/smart/filters:no_upscale()/turtle_coral_reef-4428c73f798c432ab67fe34c573ebf87.jpg",
            "https://www.thoughtco.com/thmb/QT3bdnGm_6RDtc5Fz4fMXjUGDAA=/1500x1000/filters:no_upscale():max_bytes(150000):strip_icc()/coral_reef_fish-f5bdb0a430d3458e8a041c7b36746db0.jpg",
            "http://www.noaa.gov/sites/default/files/styles/landscape_width_1275/public/legacy/image/2019/Jun/coral%20ecosystems%20reeffish.jpg?itok=zNvXr7Yz",
            "https://u4d2z7k9.rocketcdn.me/wp-content/uploads/2020/08/800px-Gulf_of_Eilat_Red_Sea_coral_reefs.jpg",
            "https://wcpss.instructure.com/courses/129139/files/949701/download?verifier=fuYKQHhQaN73w9TSP5sbgdDeMouaLWRcLnMMSiEq&wrap=1",
            "https://www.thoughtco.com/thmb/tT5eXdtEUTkN0XluSPL2f2fCh3Y=/1500x1000/filters:no_upscale():max_bytes(150000):strip_icc()/Dugong-and-cleaner-fish-graze-on-seagrass-225068d4a1644d3b8b53d20ccf21488d.jpg",
            "https://img.jagranjosh.com/imported/images/E/Articles/Neritic-Zone-img.jpg",
            "https://www.thoughtco.com/thmb/DQXelS2AHSIVWPTRaG9aTbmYvAI=/1500x1000/filters:no_upscale():max_bytes(150000):strip_icc()/shark_and_sardines-faa1f91e44ca4deda96fc1797fef9690.jpg",
            "https://s3-us-west-2.amazonaws.com/courses-images/wp-content/uploads/sites/1223/2017/02/09235650/Figure_44_04_03.jpg",
            "https://neriticzone.weebly.com/uploads/4/5/0/2/4502290/4641876.jpg?271"
        ]
    },
    {
        "habitat": "Marine Neritic - Seagrass (Submerged)",
        "image_urls": [
            "https://minio.scielo.br/documentstore/1982-436X/QzTy3pqBSSm3pqYC5wGsKkq/0a6e8d9cc54dc7ce031883fa064b62a3996bf037.jpg",
            "https://upload.wikimedia.org/wikipedia/commons/thumb/2/26/Fan_mussel_%28Pinna_nobilis%29.jpg/660px-Fan_mussel_%28Pinna_nobilis%29.jpg",
            "https://www.pewtrusts.org/-/media/post-launch-images/2019/10/healthy-seagrass/pewhighrescystalrivercharlieshoemaker0034jpgmaster.jpg?h=1080&w=1920&la=en&hash=68A2D0BD2D13842F2DE10A745D7CA9BD",
            "https://www.thoughtco.com/thmb/SQ9bsbqKpfo7Be9eLigaTAuP8Qg=/1500x844/smart/filters:no_upscale()/turtle_coral_reef-4428c73f798c432ab67fe34c573ebf87.jpg",
            "https://upload.wikimedia.org/wikipedia/commons/thumb/4/45/Sanc0209_-_Flickr_-_NOAA_Photo_Library.jpg/1200px-Sanc0209_-_Flickr_-_NOAA_Photo_Library.jpg",
            "https://upload.wikimedia.org/wikipedia/commons/thumb/e/e1/Posidonia_2_Alberto_Romeo.jpg/520px-Posidonia_2_Alberto_Romeo.jpg",
            "https://www.keywestaquarium.com/wp-content/uploads/2017/03/key-west-coral-reef-sea-grass.jpg",
            "https://www.thoughtco.com/thmb/tT5eXdtEUTkN0XluSPL2f2fCh3Y=/1500x1000/filters:no_upscale():max_bytes(150000):strip_icc()/Dugong-and-cleaner-fish-graze-on-seagrass-225068d4a1644d3b8b53d20ccf21488d.jpg",
            "https://upload.wikimedia.org/wikipedia/commons/thumb/7/7d/Carbon_uptake_and_photosynthesis_in_a_seagrass_meadow.png/350px-Carbon_uptake_and_photosynthesis_in_a_seagrass_meadow.png",
            "https://images.theconversation.com/files/302362/original/file-20191119-12509-eyqqtl.jpg?ixlib=rb-1.1.0&q=45&auto=format&w=1200&h=1200.0&fit=crop"
        ]
    },
    {
        "habitat": "Marine Neritic - Subtidal Sandy",
        "image_urls": [
            "https://www.oregonconservationstrategy.org/media/Sanddollars2_ODFW_9-28-15-e1450111247378-750x423.jpg",
            "https://faunafocus.files.wordpress.com/2019/03/marine-neritic-1.jpg?w=2560&h=1200&crop=1",
            "https://faunafocus.files.wordpress.com/2019/03/marine-neritic-1.jpg?w=640",
            "https://ocs.ecotrust.org/media/smallerNorthern-Anchovy-Geoff-Shester-Oceana-e1447358469412-750x563.jpg",
            "https://s3-us-west-2.amazonaws.com/courses-images/wp-content/uploads/sites/1223/2017/02/09235555/Figure_44_04_02.jpg",
            "https://upload.wikimedia.org/wikipedia/commons/2/28/Littoral_Zones.jpg",
            "http://hhsmarine.weebly.com/uploads/2/3/6/4/23647630/marine_environments_life_zones.pdf",
            "https://www.marinebio.org/i/beach.jpg",
            "https://faunafocus.files.wordpress.com/2019/06/cropped-9765279464_499deca38e_o-1.jpg?w=350&h=200&crop=1",
            "https://www.oregonconservationstrategy.org/media/pinnaclecanyon3IC-e1447359121244-750x500.jpg"
        ]
    },
    {
        "habitat": "Marine Neritic - Subtidal Sandy-Mud",
        "image_urls": [
            "https://faunafocus.files.wordpress.com/2019/03/marine-neritic-1.jpg",
            "https://www.oregonconservationstrategy.org/media/Sanddollars2_ODFW_9-28-15-e1450111247378-750x423.jpg",
            "https://faunafocus.files.wordpress.com/2019/03/marine-neritic-1.jpg?w=2560&h=1200&crop=1",
            "https://s3-us-west-2.amazonaws.com/courses-images/wp-content/uploads/sites/3396/2018/06/28180042/Figure_44_04_01.png",
            "https://bodell.mtchs.org/OnlineBio/BIOCD/text/chapter34/34images/34-21.gif",
            "https://s3-us-west-2.amazonaws.com/courses-images/wp-content/uploads/sites/1223/2017/02/09235555/Figure_44_04_02.jpg",
            "https://i.ytimg.com/vi/ZQD2ZxuJGsw/maxresdefault.jpg",
            "https://faunafocus.files.wordpress.com/2021/07/jan-stefka.png",
            "https://media.springernature.com/lw785/springer-static/image/prt%3A978-3-540-31079-2%2F13/MediaObjects/978-3-540-31079-2_13_Part_Fig4_HTML.jpg",
            "https://faunafocus.files.wordpress.com/2019/06/cropped-9765279464_499deca38e_o-1.jpg?w=350&h=200&crop=1"
        ]
    },
    {
        "habitat": "Wetlands (inland) - Alpine Wetlands (includes temporary waters from snowmelt)",
        "image_urls": [
            "http://www.personal.ceu.hu/students/03/nature_conservation/wwddetail/Image3.jpg",
            "http://www.personal.ceu.hu/students/03/nature_conservation/wwddetail/Image2.gif",
            "http://www.personal.ceu.hu/students/03/nature_conservation/wwddetail/Image6.jpg",
            "http://www.personal.ceu.hu/students/03/nature_conservation/wwddetail/Image5.jpg",
            "https://images.allthingsnature.org/lakeshore.jpg",
            "https://ars.els-cdn.com/content/image/1-s2.0-S0048969719307946-gr5.jpg",
            "http://www.personal.ceu.hu/students/03/nature_conservation/wwddetail/Image7.jpg",
            "https://www.maine.gov/dep/water/wetlands/images/aquatic_bed3.jpg",
            "http://www.personal.ceu.hu/students/03/nature_conservation/wwddetail/Image11.gif",
            "https://cdn.slidesharecdn.com/ss_thumbnails/typeswetlandformation-160415130530-thumbnail-4.jpg?cb=1460729001"
        ]
    }
]